[{
    "width": 1920,
    "height": 1080,
    "max_layer": 256,
    "output": "bg.png",
    "height_map": {
        "type": "hyperbolic_paraboloid",
        "params": {
            "translation_x": 480,
            "translation_y": 270
        }
    },
    "palette": ["fc4b05", "fc6428", "fc7a46", "fca583", "fccdba", "05804b", "28c864", "46c87a", "83c8a5", "bafccd", "054bfc", "2864fc", "467afc", "83a5fc", "bacdfc"],
    "layers": {
        "type": "circle_planes"
    }
}]
