[{
    "width": 768,
    "height": 768,
    "max_layer": 256,
    "output": "parab_circle_planes_orange.png",
    "height_map": {
        "type": "elliptic_paraboloid",
        "params": {
            "translation_x": 384,
            "translation_y": 384
        }
    },
    "palette": ["fc4b05", "fc6428", "fc7a46", "fca583", "fccdba"],
    "layers": {
        "type": "circle_planes"
    },
    "rand_seed": 42
}]
